…
Use `predict()` and `bind_cols()` to generate predictions using each of these 4 models and your **training** data. Then use the *accuracy* metric to assess the performance of each of the four models.

Which model achieved the highest accuracy on the training data?

```r
bind_cols(predict(log_fit, new_data = titanic_train, type = "prob"),
predict(lda_fit, new_data = titanic_train, type = "prob"),
predict(qda_fit, new_data = titanic_train, type = "prob"),
predict(nb_fit, new_data = titanic_train, type = "prob"),
titanic_train$survived)
```

```
## # A tibble: 623 x 9
##    .pred_Yes...1 .pred_No...2 .pred_Yes...3 .pred_No...4 .pred_Yes...5
##            <dbl>        <dbl>         <dbl>        <dbl>         <dbl>
##  1        0.101         0.899        0.0707        0.929   0.0455     
##  2        0.0852        0.915        0.0568        0.943   0.0480     
##  3        0.316         0.684        0.263         0.737   0.313      
##  4        0.0996        0.900        0.0745        0.926   0.000542   
##  5        0.0264        0.974        0.0164        0.984   0.000000541
##  6        0.758         0.242        0.797         0.203   0.767      
##  7        0.0686        0.931        0.0528        0.947   0.00000192 
##  8        0.485         0.515        0.549         0.451   0.707      
##  9        0.512         0.488        0.594         0.406   0.00378    
## 10        0.421         0.579        0.377         0.623   1.00       
## # ... with 613 more rows, and 4 more variables: .pred_No...6 <dbl>,
## #   .pred_Yes...7 <dbl>, .pred_No...8 <dbl>, ...9 <fct>
```
…
### Question 10

Fit the model with the highest training accuracy to the **testing** data. Report the accuracy of the model on the **testing** data.

Again using the **testing** data, create a confusion matrix and visualize it. Plot an ROC curve and calculate the area under it (AUC).

How did the model perform? Compare its training and testing accuracies. If the values differ, why do you think this is so?

```r
predict(log_fit, new_data = titanic_test, type = "prob")
```

```
## # A tibble: 268 x 2
##    .pred_Yes .pred_No
##        <dbl>    <dbl>
##  1    0.893    0.107 
##  2    0.903    0.0973
##  3    0.113    0.887 
##  4    0.158    0.842 
##  5    0.231    0.769 
##  6    0.263    0.737 
##  7    0.113    0.887 
##  8    0.113    0.887 
##  9    0.0641   0.936 
## 10    0.152    0.848 
## # ... with 258 more rows
```
…
